{
    "docs": [
        {
            "location": "/",
            "text": "GamePop Platform\n\u00b6\n\n\nGamePop implementa, escala y administra servicios para juegos.\n\n\nLa plataforma permite a los estudios implementar una suite de mecanicas de disenio facilmente, gestionar los datos del juego y sus jugadores; mantener una economia interna, procesar compras con moneda real y enviar notificaciones inmediates a los jugadores. Mas importate aun, los costos de la plataforma acompanan el crecimiento del juego, la plataforma no tienen ningun costo por adelantado. Esta plataforma es desarollada por \nErnesto Simionato\n para democratizar las buenas practicas en la industria de videojuegos, poniendo al alcance de todos una herramienta de disenio y gestion de video juegos tan completa conmo las que utilizan los grandes estudios.\n\n\nLa plataforma esta disenada para soportar una escala masiva. GamePop tambien puede ser utilizada por estudios grandes en sus propios servers.\n\n\nCaracteristicas\n\u00b6\n\n\nPermite que le pongas foco en contruir tu juego mientras que la plataforma maneja todas \ncuentas de jugadores\n, \nsus perfiles \n, \n\nsu authenticacion dentro del juego\n, \nsus datos, estadisticas\n, \nsus acciones, logros dentro del juego\n, y mucho mas.\n\n\n\n  \n\n    \nCuentas de Jugadores\n\n    \nEvery \njugador\n esta registrado y tiene un perfil.\n\n  \n\n  \n\n    \nAutenticacion de Jugadores\n\n    \nSession\n de los jugadores, permite loguearse y registrarse.",
            "title": "Introduction"
        },
        {
            "location": "/#gamepop-platform",
            "text": "GamePop implementa, escala y administra servicios para juegos.  La plataforma permite a los estudios implementar una suite de mecanicas de disenio facilmente, gestionar los datos del juego y sus jugadores; mantener una economia interna, procesar compras con moneda real y enviar notificaciones inmediates a los jugadores. Mas importate aun, los costos de la plataforma acompanan el crecimiento del juego, la plataforma no tienen ningun costo por adelantado. Esta plataforma es desarollada por  Ernesto Simionato  para democratizar las buenas practicas en la industria de videojuegos, poniendo al alcance de todos una herramienta de disenio y gestion de video juegos tan completa conmo las que utilizan los grandes estudios.  La plataforma esta disenada para soportar una escala masiva. GamePop tambien puede ser utilizada por estudios grandes en sus propios servers.",
            "title": "GamePop Platform"
        },
        {
            "location": "/#caracteristicas",
            "text": "Permite que le pongas foco en contruir tu juego mientras que la plataforma maneja todas  cuentas de jugadores ,  sus perfiles  ,  su authenticacion dentro del juego ,  sus datos, estadisticas ,  sus acciones, logros dentro del juego , y mucho mas.  \n   \n     Cuentas de Jugadores \n     Every  jugador  esta registrado y tiene un perfil. \n   \n   \n     Autenticacion de Jugadores \n     Session  de los jugadores, permite loguearse y registrarse.",
            "title": "Caracteristicas"
        }
    ]
}